%YAML 1.1
%TAG !u! tag:unity3d.com,2011:
--- !u!54 &262147929
Rigidbody:
  m_ObjectHideFlags: 0
  m_CorrespondingSourceObject: {fileID: 0}
  m_PrefabInstance: {fileID: 0}
  m_PrefabAsset: {fileID: 0}
  m_GameObject: {fileID: 350130221252714764}
  serializedVersion: 2
  m_Mass: 0.1
  m_Drag: 2
  m_AngularDrag: 0.001
  m_UseGravity: 1
  m_IsKinematic: 0
  m_Interpolate: 0
  m_Constraints: 122
  m_CollisionDetection: 0
--- !u!65 &262147931
BoxCollider:
  m_ObjectHideFlags: 0
  m_CorrespondingSourceObject: {fileID: 0}
  m_PrefabInstance: {fileID: 0}
  m_PrefabAsset: {fileID: 0}
  m_GameObject: {fileID: 350130221252714764}
  m_Material: {fileID: 0}
  m_IsTrigger: 0
  m_Enabled: 1
  serializedVersion: 2
  m_Size: {x: 0.9, y: 0.9, z: 0.1}
  m_Center: {x: 0, y: 0, z: 0.050000012}
--- !u!1001 &583920136124669021
PrefabInstance:
  m_ObjectHideFlags: 0
  serializedVersion: 2
  m_Modification:
    m_TransformParent: {fileID: 0}
    m_Modifications:
    - target: {fileID: -8679921383154817045, guid: 9fc4e35e2a1e79d41959a7d416c68cc8,
        type: 3}
      propertyPath: m_LocalPosition.x
      value: -55
      objectReference: {fileID: 0}
    - target: {fileID: -8679921383154817045, guid: 9fc4e35e2a1e79d41959a7d416c68cc8,
        type: 3}
      propertyPath: m_LocalPosition.y
      value: 5
      objectReference: {fileID: 0}
    - target: {fileID: -8679921383154817045, guid: 9fc4e35e2a1e79d41959a7d416c68cc8,
        type: 3}
      propertyPath: m_LocalPosition.z
      value: -156
      objectReference: {fileID: 0}
    - target: {fileID: -8679921383154817045, guid: 9fc4e35e2a1e79d41959a7d416c68cc8,
        type: 3}
      propertyPath: m_LocalRotation.x
      value: 0
      objectReference: {fileID: 0}
    - target: {fileID: -8679921383154817045, guid: 9fc4e35e2a1e79d41959a7d416c68cc8,
        type: 3}
      propertyPath: m_LocalRotation.y
      value: 0.7071068
      objectReference: {fileID: 0}
    - target: {fileID: -8679921383154817045, guid: 9fc4e35e2a1e79d41959a7d416c68cc8,
        type: 3}
      propertyPath: m_LocalRotation.z
      value: 0
      objectReference: {fileID: 0}
    - target: {fileID: -8679921383154817045, guid: 9fc4e35e2a1e79d41959a7d416c68cc8,
        type: 3}
      propertyPath: m_LocalRotation.w
      value: 0.7071068
      objectReference: {fileID: 0}
    - target: {fileID: -8679921383154817045, guid: 9fc4e35e2a1e79d41959a7d416c68cc8,
        type: 3}
      propertyPath: m_RootOrder
      value: 0
      objectReference: {fileID: 0}
    - target: {fileID: -8679921383154817045, guid: 9fc4e35e2a1e79d41959a7d416c68cc8,
        type: 3}
      propertyPath: m_LocalEulerAnglesHint.x
      value: 0
      objectReference: {fileID: 0}
    - target: {fileID: -8679921383154817045, guid: 9fc4e35e2a1e79d41959a7d416c68cc8,
        type: 3}
      propertyPath: m_LocalEulerAnglesHint.y
      value: 90
      objectReference: {fileID: 0}
    - target: {fileID: -8679921383154817045, guid: 9fc4e35e2a1e79d41959a7d416c68cc8,
        type: 3}
      propertyPath: m_LocalEulerAnglesHint.z
      value: 0
      objectReference: {fileID: 0}
    - target: {fileID: -7511558181221131132, guid: 9fc4e35e2a1e79d41959a7d416c68cc8,
        type: 3}
      propertyPath: m_Materials.Array.data[0]
      value: 
      objectReference: {fileID: 2100000, guid: 4e33d929a66eb984793082ef60e2a8d0, type: 2}
    - target: {fileID: 919132149155446097, guid: 9fc4e35e2a1e79d41959a7d416c68cc8,
        type: 3}
      propertyPath: m_Name
      value: 6gen
      objectReference: {fileID: 0}
    m_RemovedComponents: []
  m_SourcePrefab: {fileID: 100100000, guid: 9fc4e35e2a1e79d41959a7d416c68cc8, type: 3}
--- !u!1 &350130221252714764 stripped
GameObject:
  m_CorrespondingSourceObject: {fileID: 919132149155446097, guid: 9fc4e35e2a1e79d41959a7d416c68cc8,
    type: 3}
  m_PrefabInstance: {fileID: 583920136124669021}
  m_PrefabAsset: {fileID: 0}
